This is BibTeX, Version 0.99d
Capacity: max_strings=200000, hash_size=200000, hash_prime=170003
The top-level auxiliary file: Documento.aux
Reallocating 'name_of_file' (item size: 1) to 9 items.
The style file: IEEEtran.bst
Reallocating 'name_of_file' (item size: 1) to 8 items.
Reallocating 'singl_function' (item size: 4) to 100 items.
Reallocating 'singl_function' (item size: 4) to 100 items.
Reallocating 'singl_function' (item size: 4) to 100 items.
Reallocating 'wiz_functions' (item size: 4) to 6000 items.
Reallocating 'singl_function' (item size: 4) to 100 items.
Database file #1: bibfile.bib
-- IEEEtran.bst version 1.14 (2015/08/26) by Michael Shell.
-- http://www.michaelshell.org/tex/ieeetran/bibtex/
-- See the "IEEEtran_bst_HOWTO.pdf" manual for usage information.
Warning--empty journal in Raspberry
Warning--empty journal in STM
Warning--empty journal in IMU
Warning--empty journal in sensores
Warning--empty journal in MPU
Warning--empty journal in MBED
Warning--empty journal in Python
Warning--empty journal in VPN
Warning--empty journal in loT

Done.
You've used 9 entries,
            4087 wiz_defined-function locations,
            867 strings with 7925 characters,
and the built_in function-call counts, 2894 in all, are:
= -- 206
> -- 36
< -- 0
+ -- 18
- -- 9
* -- 116
:= -- 568
add.period$ -- 18
call.type$ -- 9
change.case$ -- 9
chr.to.int$ -- 0
cite$ -- 18
duplicate$ -- 270
empty$ -- 280
format.name$ -- 9
if$ -- 606
int.to.chr$ -- 0
int.to.str$ -- 9
missing$ -- 45
newline$ -- 50
num.names$ -- 9
pop$ -- 135
preamble$ -- 1
purify$ -- 0
quote$ -- 2
skip$ -- 218
stack$ -- 0
substring$ -- 9
swap$ -- 117
text.length$ -- 0
text.prefix$ -- 0
top$ -- 5
type$ -- 9
warning$ -- 9
while$ -- 9
width$ -- 10
write$ -- 85
(There were 9 warnings)
