\relax 
\citation{Raspberry}
\newlabel{usepackage}{{}{}}
\newlabel{sec:titulo}{{}{}}
\newlabel{sec:resumen}{{}{}}
\@writefile{toc}{\contentsline {section}{\numberline {I}Introducci\'on}{}{}\protected@file@percent }
\newlabel{sec:introduccion}{{I}{}}
\@writefile{toc}{\contentsline {section}{\numberline {II}Marco Te\'orico}{}{}\protected@file@percent }
\newlabel{sec:Marco Teorico}{{II}{}}
\@writefile{toc}{\contentsline {subsubsection}{\numberline {\mbox  {II-}1}\textbf  {Raspberry PI 3 B+}}{}{}\protected@file@percent }
\@writefile{lof}{\contentsline {figure}{\numberline {1}{\ignorespaces Raspberry PI 3 B+}}{}{}\protected@file@percent }
\newlabel{fig:RPI}{{1}{}}
\@writefile{toc}{\contentsline {subsubsection}{\numberline {\mbox  {II-}2}\textbf  {Tarjeta STM32}}{}{}\protected@file@percent }
\citation{STM}
\citation{IMU}
\citation{sensores}
\citation{MPU}
\@writefile{lof}{\contentsline {figure}{\numberline {2}{\ignorespaces Comparaci\'on de RPI}}{}{}\protected@file@percent }
\newlabel{fig:Comparacion}{{2}{}}
\@writefile{lof}{\contentsline {figure}{\numberline {3}{\ignorespaces STM32F746}}{}{}\protected@file@percent }
\newlabel{fig:STM32}{{3}{}}
\@writefile{toc}{\contentsline {subsubsection}{\numberline {\mbox  {II-}3}\textbf  {Sensor de Movimiento IMU 6050}}{}{}\protected@file@percent }
\@writefile{lof}{\contentsline {figure}{\numberline {4}{\ignorespaces MPU 6050}}{}{}\protected@file@percent }
\newlabel{fig:IMU}{{4}{}}
\@writefile{toc}{\contentsline {paragraph}{\numberline {\mbox  {II-}3a}\textbf  {Sensor de Aceler\'ometro}}{}{}\protected@file@percent }
\newlabel{eq:Y}{{1}{}}
\newlabel{eq:X}{{2}{}}
\@writefile{toc}{\contentsline {paragraph}{\numberline {\mbox  {II-}3b}\textbf  {Sensor de Giroscopio}}{}{}\protected@file@percent }
\citation{MBED}
\citation{Python}
\citation{VPN}
\citation{loT}
\newlabel{eq:A1}{{3}{}}
\newlabel{eq:A1}{{4}{}}
\newlabel{eq:A1}{{5}{}}
\@writefile{toc}{\contentsline {paragraph}{\numberline {\mbox  {II-}3c}\textbf  {Angulos Euler (Roll y Pitch)}}{}{}\protected@file@percent }
\newlabel{eq:A2}{{6}{}}
\newlabel{eq:A2}{{7}{}}
\newlabel{eq:A2}{{8}{}}
\newlabel{eq:A2}{{9}{}}
\newlabel{eq:A2}{{10}{}}
\newlabel{eq:A2}{{11}{}}
\newlabel{eq:A2}{{12}{}}
\@writefile{toc}{\contentsline {subsubsection}{\numberline {\mbox  {II-}4}\textbf  {Programas e Interfaces}}{}{}\protected@file@percent }
\@writefile{toc}{\contentsline {paragraph}{\numberline {\mbox  {II-}4a}\textbf  {MBED}}{}{}\protected@file@percent }
\@writefile{toc}{\contentsline {paragraph}{\numberline {\mbox  {II-}4b}\textbf  {Python}}{}{}\protected@file@percent }
\@writefile{toc}{\contentsline {paragraph}{\numberline {\mbox  {II-}4c}\textbf  {VNC}}{}{}\protected@file@percent }
\@writefile{toc}{\contentsline {paragraph}{\numberline {\mbox  {II-}4d}\textbf  {ThingSpeak (loT)}}{}{}\protected@file@percent }
\@writefile{lof}{\contentsline {figure}{\numberline {5}{\ignorespaces Internet de la Cosas}}{}{}\protected@file@percent }
\newlabel{fig:loT}{{5}{}}
\@writefile{toc}{\contentsline {section}{\numberline {III}Metodologia}{}{}\protected@file@percent }
\newlabel{sec:Metodologia}{{III}{}}
\@writefile{toc}{\contentsline {subsubsection}{\numberline {\mbox  {III-}1}\textbf  {La Adquisici\'on de Datos}}{}{}\protected@file@percent }
\@writefile{toc}{\contentsline {paragraph}{\numberline {\mbox  {III-}1a}\textbf  {Protocolo de Comunicaci\'on I2C}}{}{}\protected@file@percent }
\@writefile{toc}{\contentsline {paragraph}{\numberline {\mbox  {III-}1b}\textbf  {Conexiones}}{}{}\protected@file@percent }
\@writefile{lof}{\contentsline {figure}{\numberline {6}{\ignorespaces Conexi\'on Vista Lateral}}{}{}\protected@file@percent }
\newlabel{fig:Conexion1}{{6}{}}
\@writefile{lof}{\contentsline {figure}{\numberline {7}{\ignorespaces Conexi\'on Vista Frontal}}{}{}\protected@file@percent }
\newlabel{fig:Conexion2}{{7}{}}
\@writefile{toc}{\contentsline {subsubsection}{\numberline {\mbox  {III-}2}\textbf  {C\'odigo de Calibraci\'on de MBED}}{}{}\protected@file@percent }
\@writefile{lof}{\contentsline {figure}{\numberline {8}{\ignorespaces Codigo de Calibracion STM}}{}{}\protected@file@percent }
\newlabel{fig:Calibracion STM}{{8}{}}
\@writefile{toc}{\contentsline {subsubsection}{\numberline {\mbox  {III-}3}\textbf  {C\'odigo de Lectura de MBED}}{}{}\protected@file@percent }
\@writefile{lof}{\contentsline {figure}{\numberline {9}{\ignorespaces Codigo de Lectura STM}}{}{}\protected@file@percent }
\newlabel{fig:Lectura STM}{{9}{}}
\@writefile{toc}{\contentsline {subsubsection}{\numberline {\mbox  {III-}4}\textbf  {C\'odigo de Calibraci\'on de Python}}{}{}\protected@file@percent }
\@writefile{lof}{\contentsline {figure}{\numberline {10}{\ignorespaces Codigo de Calibracion Python}}{}{}\protected@file@percent }
\newlabel{fig:Calibracion Python}{{10}{}}
\@writefile{toc}{\contentsline {subsubsection}{\numberline {\mbox  {III-}5}\textbf  {C\'odigo de Lectura de Python}}{}{}\protected@file@percent }
\@writefile{toc}{\contentsline {subsubsection}{\numberline {\mbox  {III-}6}\textbf  {Configuraci\'on de loT}}{}{}\protected@file@percent }
\@writefile{lof}{\contentsline {figure}{\numberline {11}{\ignorespaces Codigo de Lectura Python}}{}{}\protected@file@percent }
\newlabel{fig:Lectura Python}{{11}{}}
\@writefile{lof}{\contentsline {figure}{\numberline {12}{\ignorespaces Codigo de Lectura Python}}{}{}\protected@file@percent }
\newlabel{fig:Lectura Python}{{12}{}}
\@writefile{lof}{\contentsline {figure}{\numberline {13}{\ignorespaces Canales}}{}{}\protected@file@percent }
\newlabel{fig:Canales}{{13}{}}
\@writefile{lof}{\contentsline {figure}{\numberline {14}{\ignorespaces Configuracion Canal N\IeC {\textdegree }1}}{}{}\protected@file@percent }
\newlabel{fig:Canal1}{{14}{}}
\@writefile{lof}{\contentsline {figure}{\numberline {15}{\ignorespaces Configuracion Canal N\IeC {\textdegree }2}}{}{}\protected@file@percent }
\newlabel{fig:Canal2}{{15}{}}
\@writefile{toc}{\contentsline {section}{\numberline {IV}Resultados}{}{}\protected@file@percent }
\newlabel{sec:resultados}{{IV}{}}
\@writefile{toc}{\contentsline {subsubsection}{\numberline {\mbox  {IV-}1}\textbf  {Graficas de Python}}{}{}\protected@file@percent }
\@writefile{lof}{\contentsline {figure}{\numberline {16}{\ignorespaces Gr\'aficas del Acelerometro}}{}{}\protected@file@percent }
\newlabel{fig:GraficasA}{{16}{}}
\@writefile{lof}{\contentsline {figure}{\numberline {17}{\ignorespaces Gr\'aficas del Giroscopio}}{}{}\protected@file@percent }
\newlabel{fig:GraficasB}{{17}{}}
\@writefile{toc}{\contentsline {subsubsection}{\numberline {\mbox  {IV-}2}\textbf  {Graficas de ThingSpeak}}{}{}\protected@file@percent }
\@writefile{lof}{\contentsline {figure}{\numberline {18}{\ignorespaces Gr\'aficas del Pitch}}{}{}\protected@file@percent }
\newlabel{fig:GraficasP}{{18}{}}
\@writefile{lof}{\contentsline {figure}{\numberline {19}{\ignorespaces Gr\'aficas del Roll}}{}{}\protected@file@percent }
\newlabel{fig:GraficasR}{{19}{}}
\@writefile{lof}{\contentsline {figure}{\numberline {20}{\ignorespaces Gr\'aficas del 3 eje Acelerometro y 1 eje Giroscopio}}{}{}\protected@file@percent }
\newlabel{fig:GraficasA}{{20}{}}
\bibstyle{IEEEtran}
\bibdata{bibfile}
\bibcite{Raspberry}{1}
\bibcite{STM}{2}
\bibcite{IMU}{3}
\bibcite{sensores}{4}
\bibcite{MPU}{5}
\bibcite{MBED}{6}
\bibcite{Python}{7}
\bibcite{VPN}{8}
\bibcite{loT}{9}
\@writefile{lof}{\contentsline {figure}{\numberline {21}{\ignorespaces Gr\'aficas del 2 eje Giroscopio}}{}{}\protected@file@percent }
\newlabel{fig:GraficasB}{{21}{}}
\@writefile{lof}{\contentsline {figure}{\numberline {22}{\ignorespaces Gr\'aficas de Pitch y Roll }}{}{}\protected@file@percent }
\newlabel{fig:GraficasC}{{22}{}}
\@writefile{toc}{\contentsline {section}{\numberline {V}Conclusiones}{}{}\protected@file@percent }
\newlabel{sec:conclusiones}{{V}{}}
\@writefile{lof}{\contentsline {figure}{\numberline {23}{\ignorespaces Gr\'aficas de Roll }}{}{}\protected@file@percent }
\newlabel{fig:GraficasD}{{23}{}}
\@writefile{toc}{\contentsline {section}{Referencias}{}{}\protected@file@percent }
\gdef \@abspage@last{8}
